{
  "1": [
    {
      "more": [
        {
          "aff": "м",
          "type": "ТЖ"
        }
      ],
      "affixes": "м",
      "phonet": [
        1
      ]
    },
    {
      "more": [
        {
          "aff": "ң",
          "type": "ТЖ"
        }
      ],
      "affixes": "ң",
      "phonet": [
        1
      ]
    },
    {
      "more": [
        {
          "aff": "ы",
          "type": "ТЖ"
        }
      ],
      "affixes": "ы",
      "phonet": [
        2,
        3,
        4,
        5
      ]
    }
  ],
  "2": [
    {
      "more": [
        {
          "aff": "ға",
          "type": "БС"
        }
      ],
      "affixes": "ға",
      "phonet": [
        1,
        2,
        3,
        5
      ]
    },
    {
      "more": [
        {
          "aff": "қа",
          "type": "БС"
        }
      ],
      "affixes": "қа",
      "phonet": [
        4
      ]
    },
    {
      "more": [
        {
          "aff": "да",
          "type": "ЖС"
        }
      ],
      "affixes": "да",
      "phonet": [
        1,
        2,
        3,
        5
      ]
    },
    {
      "more": [
        {
          "aff": "та",
          "type": "ЖС"
        }
      ],
      "affixes": "та",
      "phonet": [
        4
      ]
    },
    {
      "more": [
        {
          "aff": "ым",
          "type": "ТЖ"
        }
      ],
      "affixes": "ым",
      "phonet": [
        2,
        3,
        4,
        5
      ]
    },
    {
      "more": [
        {
          "aff": "е",
          "type": "БС"
        },
        {
          "aff": "м",
          "type": "ТЖ"
        }
      ],
      "affixes": "ме",
      "phonet": [
        1
      ]
    },
    {
      "more": [
        {
          "aff": "ың",
          "type": "ТЖ"
        }
      ],
      "affixes": "ың",
      "phonet": [
        2,
        3,
        4,
        5
      ]
    },
    {
      "more": [
        {
          "aff": "ң",
          "type": "ТЖ"
        },
        {
          "aff": "а",
          "type": "БС"
        }
      ],
      "affixes": "ңа",
      "phonet": [
        1
      ]
    },
    {
      "more": [
        {
          "aff": "сы",
          "type": "ТЖ"
        }
      ],
      "affixes": "сы",
      "phonet": [
        1
      ]
    }
  ],
  "3": [
    {
      "more": [
        {
          "aff": "дан",
          "type": "ШС"
        }
      ],
      "affixes": "дан",
      "phonet": [
        1,
        2,
        5
      ]
    },
    {
      "more": [
        {
          "aff": "нан",
          "type": "ШС"
        }
      ],
      "affixes": "нан",
      "phonet": [
        3
      ]
    },
    {
      "more": [
        {
          "aff": "тан",
          "type": "ШС"
        }
      ],
      "affixes": "тан",
      "phonet": [
        4
      ]
    },
    {
      "more": [
        {
          "aff": "лар",
          "type": "КЖ"
        }
      ],
      "affixes": "лар",
      "phonet": [
        1,
        2
      ]
    },
    {
      "more": [
        {
          "aff": "дар",
          "type": "Кж"
        }
      ],
      "affixes": "дар",
      "phonet": [
        3,
        5
      ]
    },
    {
      "more": [
        {
          "aff": "тар",
          "type": "КЖ"
        }
      ],
      "affixes": "тар",
      "phonet": [
        4
      ]
    },
    {
      "more": [
        {
          "aff": "м",
          "type": "ТЖ"
        },
        {
          "aff": "да",
          "type": "ЖС"
        }
      ],
      "affixes": "мда",
      "phonet": [
        1
      ]
    },
    {
      "more": [
        {
          "aff": "м",
          "type": "ТЖ"
        },
        {
          "aff": "ды",
          "type": "ТС"
        }
      ],
      "affixes": "мды",
      "phonet": [
        1
      ]
    },
	{
      "more": [
        {
          "aff": "н",
          "type": "ТС"
        },
        {
          "aff": "сы",
          "type": "ТЖ"
        }
      ],
      "affixes": "сын",
      "phonet": [
        1
      ]
    },
    {
      "more": [
        {
          "aff": "ым",
          "type": "ТЖ"
        },
        {
          "aff": "е",
          "type": "БС"
        }
      ],
      "affixes": "ыме",
      "phonet": [
        2,
        3,
        4,
        5
      ]
    },
    {
      "more": [
        {
          "aff": "мен",
          "type": "КС"
        }
      ],
      "affixes": "мен",
      "phonet": [
        1,
        2,
        3
      ]
    },
    {
      "more": [
        {
          "aff": "пен",
          "type": "КС"
        }
      ],
      "affixes": "пен",
      "phonet": [
        4
      ]
    },
    {
      "more": [
        {
          "aff": "бен",
          "type": "КС"
        }
      ],
      "affixes": "бен",
      "phonet": [
        5
      ]
    },
    {
      "more": [
        {
          "aff": "мыз",
          "type": "ТЖ"
        }
      ],
      "affixes": "мыз",
      "phonet": [
        1
      ]
    },
    {
      "more": [
        {
          "aff": "ның",
          "type": "ІС"
        }
      ],
      "affixes": "ның",
      "phonet": [
        1,
        3
      ]
    },
    {
      "more": [
        {
          "aff": "дың",
          "type": "ІС"
        }
      ],
      "affixes": "дың",
      "phonet": [
        2,
        5
      ]
    },
    {
      "more": [
        {
          "aff": "тың",
          "type": "ІС"
        }
      ],
      "affixes": "тың",
      "phonet": [
        4
      ]
    },
    {
      "more": [
        {
          "aff": "ң",
          "type": "ТЖ"
        },
        {
          "aff": "да",
          "type": "ЖС"
        }
      ],
      "affixes": "ңда",
      "phonet": [
        1
      ]
    },
    {
      "more": [
        {
          "aff": "ң",
          "type": "ТЖ"
        },
        {
          "aff": "ды",
          "type": "ТС"
        }
      ],
      "affixes": "ңды",
      "phonet": [
        1
      ]
    },
    {
      "more": [
        {
          "aff": "а",
          "type": "БС"
        },
        {
          "aff": "ың",
          "type": "ТЖ"
        }
      ],
      "affixes": "ыңа",
      "phonet": [
        2,
        3,
        4,
        5
      ]
    },
    {
      "more": [
        {
          "aff": "ңыз",
          "type": "ТЖ"
        }
      ],
      "affixes": "ңыз",
      "phonet": [
        1
      ]
    },
    {
      "more": [
        {
          "aff": "ы",
          "type": "ТЖ"
        },
        {
          "aff": "на",
          "type": "БС"
        }
      ],
      "affixes": "ына",
      "phonet": [
        2,
        3,
        4,
        5
      ]
    },
    {
      "more": [
        {
          "aff": "мын",
          "type": "ЖЖ"
        }
      ],
      "affixes": "мын",
      "phonet": [
        1,
        2,
        3
      ]
    },
    {
      "more": [
        {
          "aff": "бын",
          "type": "ЖЖ"
        }
      ],
      "affixes": "бын",
      "phonet": [
        5
      ]
    },
    {
      "more": [
        {
          "aff": "пын",
          "type": "ЖЖ"
        }
      ],
      "affixes": "пын",
      "phonet": [
        4
      ]
    },
    {
      "more": [
        {
          "aff": "сыз",
          "type": "ЖЖ"
        }
      ],
      "affixes": "сыз",
      "phonet": [
        1,
        2,
        3,
        4,
        5
      ]
    },
    {
      "more": [
        {
          "aff": "сың",
          "type": "ЖЖ"
        }
      ],
      "affixes": "сың",
      "phonet": [
        1,
        2,
        3,
        4,
        5
      ]
    }
  ],
  "4": [
    {
      "more": [
        {
          "aff": "да",
          "type": "ЖС"
        },
        {
          "aff": "ғы",
          "type": "ЖҰ"
        }
      ],
      "affixes": "дағы",
      "phonet": [
        1,
        2,
        3,
        5
      ]
    },
    {
      "more": [
        {
          "aff": "та",
          "type": "ЖС"
        },
        {
          "aff": "ғы",
          "type": "ЖҰ"
        }
      ],
      "affixes": "тағы",
      "phonet": [
        4
      ]
    },
    {
      "more": [
        {
          "aff": "ы",
          "type": "ТЖ"
        },
        {
          "aff": "лар",
          "type": "КЖ"
        }
      ],
      "affixes": "лары",
      "phonet": [
        1,
        2
      ]
    },
    {
      "more": [
        {
          "aff": "ы",
          "type": "ТЖ"
        },
        {
          "aff": "тар",
          "type": "КЖ"
        }
      ],
      "affixes": "тары",
      "phonet": [
        4
      ]
    },
    {
      "more": [
        {
          "aff": "дар",
          "type": "КЖ"
        },
        {
          "aff": "ы",
          "type": "ТЖ"
        }
      ],
      "affixes": "дары",
      "phonet": [
        3,
        5
      ]
    },
    {
      "more": [
        {
          "aff": "да",
          "type": "ЖС"
        },
        {
          "aff": "ым",
          "type": "ТЖ"
        }
      ],
      "affixes": "ымда",
      "phonet": [
        2,
        3,
        4,
        5
      ]
    },
    {
      "more": [
        {
          "aff": "ым",
          "type": "ТЖ"
        },
        {
          "aff": "ды",
          "type": "ТС"
        }
      ],
      "affixes": "ымды",
      "phonet": [
        2,
        3,
        4,
        5
      ]
    },
    {
      "more": [
        {
          "aff": "м",
          "type": "ТЖ"
        },
        {
          "aff": "мен",
          "type": "КС"
        }
      ],
      "affixes": "ммен",
      "phonet": [
        1
      ]
    },
    {
      "more": [
        {
          "aff": "нан",
          "type": "ШС"
        },
        {
          "aff": "м",
          "type": "ТЖ"
        }
      ],
      "affixes": "мнан",
      "phonet": [
        1
      ]
    },
    {
      "more": [
        {
          "aff": "м",
          "type": "ТЖ"
        },
        {
          "aff": "ның",
          "type": "ІС"
        }
      ],
      "affixes": "мның",
      "phonet": [
        1
      ]
    },
    {
      "more": [
        {
          "aff": "ымыз",
          "type": "ТЖ"
        }
      ],
      "affixes": "ымыз",
      "phonet": [
        2,
        3,
        4,
        5
      ]
    },
    {
      "more": [
        {
          "aff": "да",
          "type": "ЖС"
        },
        {
          "aff": "ың",
          "type": "ТЖ"
        }
      ],
      "affixes": "ыңда",
      "phonet": [
        2,
        3,
        4,
        5
      ]
    },
    {
      "more": [
        {
          "aff": "ың",
          "type": "ТЖ"
        },
        {
          "aff": "ды",
          "type": "ТС"
        }
      ],
      "affixes": "ыңды",
      "phonet": [
        2,
        3,
        4,
        5
      ]
    },
    {
      "more": [
        {
          "aff": "ң",
          "type": "ТЖ"
        },
        {
          "aff": "мен",
          "type": "КС"
        }
      ],
      "affixes": "ңмен",
      "phonet": [
        1
      ]
    },
    {
      "more": [
        {
          "aff": "мын",
          "type": "ЖЖ"
        },
        {
          "aff": "ң",
          "type": "ТЖ"
        }
      ],
      "affixes": "ңмын",
      "phonet": [
        1
      ]
    },
    {
      "more": [
        {
          "aff": "нан",
          "type": "ШС"
        },
        {
          "aff": "ң",
          "type": "ТЖ"
        }
      ],
      "affixes": "ңнан",
      "phonet": [
        1
      ]
    },
    {
      "more": [
        {
          "aff": "ның",
          "type": "ІС"
        },
        {
          "aff": "ң",
          "type": "ТЖ"
        }
      ],
      "affixes": "ңның",
      "phonet": [
        1
      ]
    },
    {
      "more": [
        {
          "aff": "ыңыз",
          "type": "ТЖ"
        }
      ],
      "affixes": "ыңыз",
      "phonet": [
        2,
        3,
        4,
        5
      ]
    },
    {
      "more": [
        {
          "aff": "ы",
          "type": "ТЖ"
        },
        {
          "aff": "мен",
          "type": "КС"
        }
      ],
      "affixes": "ымен",
      "phonet": [
        2,
        3,
        4,
        5
      ]
    },
    {
      "more": [
        {
          "aff": "ы",
          "type": "ТЖ"
        },
        {
          "aff": "нда",
          "type": "ЖС"
        }
      ],
      "affixes": "ында",
      "phonet": [
        2,
        3,
        4,
        5
      ]
    },
    {
      "more": [
        {
          "aff": "на",
          "type": "БС"
        },
        {
          "aff": "сы",
          "type": "ТЖ"
        }
      ],
      "affixes": "сына",
      "phonet": [
        1
      ]
    },
    {
      "more": [
        {
          "aff": "нан",
          "type": "ШС"
        },
        {
          "aff": "ы",
          "type": "ТЖ"
        }
      ],
      "affixes": "ынан",
      "phonet": [
        2,
        3,
        4,
        5
      ]
    },
    {
      "more": [
        {
          "aff": "ы",
          "type": "ТЖ"
        },
        {
          "aff": "ның",
          "type": "ІС"
        }
      ],
      "affixes": "ының",
      "phonet": [
        2,
        3,
        4,
        5
      ]
    },
    {
      "more": [
        {
          "aff": "сыз",
          "type": "ЖЖ"
        },
        {
          "aff": "м",
          "type": "ТЖ"
        }
      ],
      "affixes": "мсыз",
      "phonet": [
        1
      ]
    },
    {
      "more": [
        {
          "aff": "сың",
          "type": "ЖЖ"
        },
        {
          "aff": "м",
          "type": "ТЖ"
        }
      ],
      "affixes": "мсың",
      "phonet": [
        1
      ]
    },
    {
      "more": [
        {
          "aff": "быз",
          "type": "ЖЖ"
        },
        {
          "aff": "ң",
          "type": "ТЖ"
        }
      ],
      "affixes": "ңбыз",
      "phonet": [
        1
      ]
    },
    {
      "more": [
        {
          "aff": "ң",
          "type": "ТЖ"
        },
        {
          "aff": "мын",
          "type": "ЖЖ"
        }
      ],
      "affixes": "ңмын",
      "phonet": [
        1
      ]
    },
    {
      "more": [
        {
          "aff": "ы",
          "type": "ТЖ"
        },
        {
          "aff": "мын",
          "type": "ЖЖ"
        }
      ],
      "affixes": "ымын",
      "phonet": [
        2,
        3,
        4,
        5
      ]
    },
    {
      "more": [
        {
          "aff": "сыз",
          "type": "ЖЖ"
        },
        {
          "aff": "ы",
          "type": "ТЖ"
        }
      ],
      "affixes": "ысыз",
      "phonet": [
        2,
        3,
        4,
        5
      ]
    },
    {
      "more": [
        {
          "aff": "ы",
          "type": "ТЖ"
        },
        {
          "aff": "сың",
          "type": "ЖЖ"
        }
      ],
      "affixes": "ысың",
      "phonet": [
        2,
        3,
        4,
        5
      ]
    }
  ],
  "5": [
    {
      "more": [
        {
          "aff": "лар",
          "type": "КЖ"
        },
        {
          "aff": "ға",
          "type": "БС"
        }
      ],
      "affixes": "ларға",
      "phonet": [
        1,
        2
      ]
    },
    {
      "more": [
        {
          "aff": "тар",
          "type": "КЖ"
        },
        {
          "aff": "ға",
          "type": "БС"
        }
      ],
      "affixes": "тарға",
      "phonet": [
        4
      ]
    },
    {
      "more": [
        {
          "aff": "дар",
          "type": "КЖ"
        },
        {
          "aff": "ға",
          "type": "БС"
        }
      ],
      "affixes": "дарға",
      "phonet": [
        3,
        5
      ]
    },
    {
      "more": [
        {
          "aff": "да",
          "type": "ЖС"
        },
        {
          "aff": "лар",
          "type": "КЖ"
        }
      ],
      "affixes": "ларда",
      "phonet": [
        1,
        2
      ]
    },
    {
      "more": [
        {
          "aff": "да",
          "type": "ЖС"
        },
        {
          "aff": "тар",
          "type": "КЖ"
        }
      ],
      "affixes": "тарда",
      "phonet": [
        4
      ]
    },
    {
      "more": [
        {
          "aff": "да",
          "type": "ЖС"
        },
        {
          "aff": "дар",
          "type": "КЖ"
        }
      ],
      "affixes": "дарда",
      "phonet": [
        3,
        5
      ]
    },
    {
      "more": [
        {
          "aff": "лар",
          "type": "КЖ"
        },
        {
          "aff": "ды",
          "type": "ТС"
        }
      ],
      "affixes": "ларды",
      "phonet": [
        1,
        2
      ]
    },
    {
      "more": [
        {
          "aff": "тар",
          "type": "КЖ"
        },
        {
          "aff": "ды",
          "type": "ТС"
        }
      ],
      "affixes": "тарды",
      "phonet": [
        4
      ]
    },
    {
      "more": [
        {
          "aff": "ды",
          "type": "ТС"
        },
        {
          "aff": "дар",
          "type": "КЖ"
        }
      ],
      "affixes": "дарды",
      "phonet": [
        3,
        5
      ]
    },
    {
      "more": [
        {
          "aff": "ым",
          "type": "ТЖ1-Ж"
        },
        {
          "aff": "лар",
          "type": "КЖ"
        }
      ],
      "affixes": "ларым",
      "phonet": [
        1,
        2
      ]
    },
    {
      "more": [
        {
          "aff": "ым",
          "type": "ТЖ1-Ж"
        },
        {
          "aff": "тар",
          "type": "КЖ"
        }
      ],
      "affixes": "тарым",
      "phonet": [
        4
      ]
    },
    {
      "more": [
        {
          "aff": "ым",
          "type": "ТЖ1-Ж"
        },
        {
          "aff": "лар",
          "type": "КЖ"
        }
      ],
      "affixes": "дарым",
      "phonet": [
        3,
        5
      ]
    },
    {
      "more": [
        {
          "aff": "менен",
          "type": "КС"
        }
      ],
      "affixes": "менен",
      "phonet": [
        1,
        2,
        3
      ]
    },
    {
      "more": [
        {
          "aff": "пенен",
          "type": "КС"
        }
      ],
      "affixes": "пенен",
      "phonet": [
        4
      ]
    },
    {
      "more": [
        {
          "aff": "бенен",
          "type": "КС"
        }
      ],
      "affixes": "бенен",
      "phonet": [
        5
      ]
    },
    {
      "more": [
        {
          "aff": "ым",
          "type": "ТЖ"
        },
        {
          "aff": "мен",
          "type": "КС"
        }
      ],
      "affixes": "ыммен",
      "phonet": [
        2,
        3,
        4,
        5
      ]
    },
    {
      "more": [
        {
          "aff": "нан",
          "type": "ШС"
        },
        {
          "aff": "ым",
          "type": "ТЖ"
        }
      ],
      "affixes": "ымнан",
      "phonet": [
        2,
        3,
        4,
        5
      ]
    },
    {
      "more": [
        {
          "aff": "ым",
          "type": "ТЖ"
        },
        {
          "aff": "ның",
          "type": "ІС"
        }
      ],
      "affixes": "ымның",
      "phonet": [
        2,
        3,
        4,
        5
      ]
    },
    {
      "more": [
        {
          "aff": "ға",
          "type": "БС"
        },
        {
          "aff": "мыз",
          "type": "ТЖ"
        }
      ],
      "affixes": "мызға",
      "phonet": [
        1
      ]
    },
    {
      "more": [
        {
          "aff": "мыз",
          "type": "ТЖ"
        },
        {
          "aff": "да",
          "type": "ЖС"
        }
      ],
      "affixes": "мызда",
      "phonet": [
        1
      ]
    },
    {
      "more": [
        {
          "aff": "ды",
          "type": "ТС"
        },
        {
          "aff": "мыз",
          "type": "ТЖ"
        }
      ],
      "affixes": "мызды",
      "phonet": [
        1
      ]
    },
    {
      "more": [
        {
          "aff": "дікі",
          "type": "Тиіс"
        },
        {
          "aff": "ң",
          "type": "ТЖ"
        }
      ],
      "affixes": "ңдікі",
      "phonet": [
        1
      ]
    },
    {
      "more": [
        {
          "aff": "мен",
          "type": "КС"
        },
        {
          "aff": "ың",
          "type": "ТЖ"
        }
      ],
      "affixes": "ыңмен",
      "phonet": [
        2,
        3,
        4,
        5
      ]
    },
    {
      "more": [
        {
          "aff": "ың",
          "type": "ТЖ"
        },
        {
          "aff": "мын",
          "type": "ЖЖ"
        }
      ],
      "affixes": "ыңмын",
      "phonet": [
        2,
        3,
        4,
        5
      ]
    },
    {
      "more": [
        {
          "aff": "ың",
          "type": "ТЖ"
        },
        {
          "aff": "нан",
          "type": "ШС"
        }
      ],
      "affixes": "ыңнан",
      "phonet": [
        2,
        3,
        4,
        5
      ]
    },
    {
      "more": [
        {
          "aff": "ың",
          "type": "ТЖ"
        },
        {
          "aff": "ның",
          "type": "ІС"
        }
      ],
      "affixes": "ыңның",
      "phonet": [
        2,
        3,
        4,
        5
      ]
    },
    {
      "more": [
        {
          "aff": "ңыз",
          "type": "ТЖ"
        },
        {
          "aff": "ға",
          "type": "БС"
        }
      ],
      "affixes": "ңызға",
      "phonet": [
        1
      ]
    },
    {
      "more": [
        {
          "aff": "ңыз",
          "type": "ТЖ"
        },
        {
          "aff": "да",
          "type": "ЖС"
        }
      ],
      "affixes": "ңызда",
      "phonet": [
        1
      ]
    },
    {
      "more": [
        {
          "aff": "ды",
          "type": "ТС"
        },
        {
          "aff": "ңыз",
          "type": "ТЖ"
        }
      ],
      "affixes": "ңызды",
      "phonet": [
        1
      ]
    },
    {
      "more": [
        {
          "aff": "сы",
          "type": "ТЖ"
        },
        {
          "aff": "мен",
          "type": "КС"
        }
      ],
      "affixes": "сымен",
      "phonet": [
        1
      ]
    },
    {
      "more": [
        {
          "aff": "сы",
          "type": "ТЖ"
        },
        {
          "aff": "нда",
          "type": "ЖС"
        }
      ],
      "affixes": "сында",
      "phonet": [
        1
      ]
    },
    {
      "more": [
        {
          "aff": "сы",
          "type": "ТЖ"
        },
        {
          "aff": "нан",
          "type": "ШС"
        }
      ],
      "affixes": "сынан",
      "phonet": [
        1
      ]
    },
    {
      "more": [
        {
          "aff": "нікі",
          "type": "Тиіс"
        },
        {
          "aff": "ы",
          "type": "ТЖ"
        }
      ],
      "affixes": "ынікі",
      "phonet": [
        2,
        3,
        4,
        5
      ]
    },
    {
      "more": [
        {
          "aff": "сы",
          "type": "ТЖ"
        },
        {
          "aff": "ның",
          "type": "ІС"
        }
      ],
      "affixes": "сының",
      "phonet": [
        1
      ]
    },
    {
      "more": [
        {
          "aff": "сыз",
          "type": "ЖЖ"
        },
        {
          "aff": "ым",
          "type": "ТЖ"
        }
      ],
      "affixes": "ымсыз",
      "phonet": [
        2,
        3,
        4,
        5
      ]
    },
    {
      "more": [
        {
          "aff": "сың",
          "type": "ЖЖ"
        },
        {
          "aff": "ым",
          "type": "ТЖ"
        }
      ],
      "affixes": "ымсың",
      "phonet": [
        2,
        3,
        4,
        5
      ]
    },
    {
      "more": [
        {
          "aff": "быз",
          "type": "ЖЖ"
        },
        {
          "aff": "ың",
          "type": "ТЖ"
        }
      ],
      "affixes": "ыңбыз",
      "phonet": [
        2,
        3,
        4,
        5
      ]
    },
    {
      "more": [
        {
          "aff": "мын",
          "type": "ЖЖ"
        },
        {
          "aff": "ың",
          "type": "ТЖ"
        }
      ],
      "affixes": "ыңмын",
      "phonet": [
        2,
        3,
        4,
        5
      ]
    },
    {
      "more": [
        {
          "aff": "сы",
          "type": "ТЖ"
        },
        {
          "aff": "мын",
          "type": "ЖЖ"
        }
      ],
      "affixes": "сымын",
      "phonet": [
        1
      ]
    },
    {
      "more": [
        {
          "aff": "сыз",
          "type": "ЖЖ"
        },
        {
          "aff": "сы",
          "type": "ТЖ"
        }
      ],
      "affixes": "сысыз",
      "phonet": [
        1
      ]
    },
    {
      "more": [
        {
          "aff": "сы",
          "type": "ТЖ"
        },
        {
          "aff": "сың",
          "type": "ЖЖ"
        }
      ],
      "affixes": "сысың",
      "phonet": [
        1
      ]
    }
  ],
  "6": [
    {
      "more": [
        {
          "aff": "дан",
          "type": "ШС"
        },
        {
          "aff": "лар",
          "type": "КЖ"
        }
      ],
      "affixes": "лардан",
      "phonet": [
        1,
        2
      ]
    },
    {
      "more": [
        {
          "aff": "тар",
          "type": "КЖ"
        },
        {
          "aff": "дан",
          "type": "ШС"
        }
      ],
      "affixes": "тардан",
      "phonet": [
        4
      ]
    },
    {
      "more": [
        {
          "aff": "дан",
          "type": "ШС"
        },
        {
          "aff": "дар",
          "type": "КЖ"
        }
      ],
      "affixes": "дардан",
      "phonet": [
        3,
        5
      ]
    },
    {
      "more": [
        {
          "aff": "лар",
          "type": "КЖ"
        },
        {
          "aff": "дың",
          "type": "ІС"
        }
      ],
      "affixes": "лардың",
      "phonet": [
        1,
        2
      ]
    },
    {
      "more": [
        {
          "aff": "дың",
          "type": "ІС"
        },
        {
          "aff": "тар",
          "type": "КЖ"
        }
      ],
      "affixes": "тардың",
      "phonet": [
        4
      ]
    },
    {
      "more": [
        {
          "aff": "дар",
          "type": "КЖ"
        },
        {
          "aff": "дың",
          "type": "ІС"
        }
      ],
      "affixes": "дардың",
      "phonet": [
        3,
        5
      ]
    },
    {
      "more": [
        {
          "aff": "мен",
          "type": "КС"
        },
        {
          "aff": "лар",
          "type": "КЖ"
        }
      ],
      "affixes": "лармен",
      "phonet": [
        1,
        2
      ]
    },
    {
      "more": [
        {
          "aff": "мен",
          "type": "КС"
        },
        {
          "aff": "тар",
          "type": "КЖ"
        }
      ],
      "affixes": "тармен",
      "phonet": [
        4
      ]
    },
    {
      "more": [
        {
          "aff": "мен",
          "type": "КС"
        },
        {
          "aff": "дар",
          "type": "КЖ"
        }
      ],
      "affixes": "дармен",
      "phonet": [
        3,
        5
      ]
    },
    {
      "more": [
        {
          "aff": "лар",
          "type": "КЖ"
        },
        {
          "aff": "а",
          "type": "БС"
        },
        {
          "aff": "ым",
          "type": "ТЖ"
        }
      ],
      "affixes": "ларыма",
      "phonet": [
        1,
        2
      ]
    },
    {
      "more": [
        {
          "aff": "ым",
          "type": "ТЖ"
        },
        {
          "aff": "тар",
          "type": "КЖ"
        },
        {
          "aff": "а",
          "type": "БС"
        }
      ],
      "affixes": "тарыма",
      "phonet": [
        4
      ]
    },
    {
      "more": [
        {
          "aff": "дар",
          "type": "КЖ"
        },
        {
          "aff": "ым",
          "type": "ТЖ"
        },
        {
          "aff": "а",
          "type": "БС"
        }
      ],
      "affixes": "дарыма",
      "phonet": [
        3,
        5
      ]
    },
    {
      "more": [
        {
          "aff": "ын",
          "type": "ТЖ"
        },
        {
          "aff": "е",
          "type": "БС"
        },
        {
          "aff": "лар",
          "type": "КЖ"
        }
      ],
      "affixes": "ларына",
      "phonet": [
        1,
        2
      ]
    },
    {
      "more": [
        {
          "aff": "м",
          "type": "ТЖ"
        },
        {
          "aff": "менен",
          "type": "КС"
        }
      ],
      "affixes": "мменен",
      "phonet": [
        1
      ]
    },
    {
      "more": [
        {
          "aff": "мыз",
          "type": "ТЖ"
        },
        {
          "aff": "бен",
          "type": "КС"
        }
      ],
      "affixes": "мызбен",
      "phonet": [
        1
      ]
    },
    {
      "more": [
        {
          "aff": "ға",
          "type": "БС"
        },
        {
          "aff": "ымыз",
          "type": "ТЖ"
        }
      ],
      "affixes": "ымызға",
      "phonet": [
        2,
        3,
        4,
        5
      ]
    },
    {
      "more": [
        {
          "aff": "да",
          "type": "ЖС"
        },
        {
          "aff": "ымыз",
          "type": "ТЖ"
        }
      ],
      "affixes": "ымызда",
      "phonet": [
        2,
        3,
        4,
        5
      ]
    },
    {
      "more": [
        {
          "aff": "мыз",
          "type": "ТЖ"
        },
        {
          "aff": "дан",
          "type": "ШС"
        }
      ],
      "affixes": "мыздан",
      "phonet": [
        1
      ]
    },
    {
      "more": [
        {
          "aff": "ды",
          "type": "ТС"
        },
        {
          "aff": "ымыз",
          "type": "ТЖ"
        }
      ],
      "affixes": "ымызды",
      "phonet": [
        2,
        3,
        4,
        5
      ]
    },
    {
      "more": [
        {
          "aff": "дың",
          "type": "ІС"
        },
        {
          "aff": "мыз",
          "type": "ТЖ"
        }
      ],
      "affixes": "мыздың",
      "phonet": [
        1
      ]
    },
    {
      "more": [
        {
          "aff": "дікі",
          "type": "Тиіс"
        },
        {
          "aff": "ың",
          "type": "ТЖ"
        }
      ],
      "affixes": "ыңдікі",
      "phonet": [
        2,
        3,
        4,
        5
      ]
    },
    {
      "more": [
        {
          "aff": "ң",
          "type": "ТЖ"
        },
        {
          "aff": "менен",
          "type": "КС"
        }
      ],
      "affixes": "ңменен",
      "phonet": [
        1
      ]
    },
    {
      "more": [
        {
          "aff": "бен",
          "type": "КС"
        },
        {
          "aff": "ңыз",
          "type": "ТЖ"
        }
      ],
      "affixes": "ңызбен",
      "phonet": [
        1
      ]
    },
    {
      "more": [
        {
          "aff": "да",
          "type": "ЖС"
        },
        {
          "aff": "ыңыз",
          "type": "ТЖ"
        }
      ],
      "affixes": "ыңызда",
      "phonet": [
        2,
        3,
        4,
        5
      ]
    },
    {
      "more": [
        {
          "aff": "ңыз",
          "type": "ТЖ"
        },
        {
          "aff": "дан",
          "type": "ШС"
        }
      ],
      "affixes": "ңыздан",
      "phonet": [
        1
      ]
    },
    {
      "more": [
        {
          "aff": "ды",
          "type": "ТС"
        },
        {
          "aff": "ыңыз",
          "type": "ТЖ"
        }
      ],
      "affixes": "ыңызды",
      "phonet": [
        2,
        3,
        4,
        5
      ]
    },
    {
      "more": [
        {
          "aff": "ңыз",
          "type": "ТЖ"
        },
        {
          "aff": "дың",
          "type": "ІС"
        }
      ],
      "affixes": "ңыздың",
      "phonet": [
        1
      ]
    },
    {
      "more": [
        {
          "aff": "менен",
          "type": "КС"
        },
        {
          "aff": "ы",
          "type": "ТЖ"
        }
      ],
      "affixes": "ыменен",
      "phonet": [
        2,
        3,
        4,
        5
      ]
    },
    {
      "more": [
        {
          "aff": "нікі",
          "type": "Тиіс"
        },
        {
          "aff": "сы",
          "type": "ТЖ"
        }
      ],
      "affixes": "сынікі",
      "phonet": [
        1
      ]
    },
    {
      "more": [
        {
          "aff": "лар",
          "type": "КЖ"
        },
        {
          "aff": "мыз",
          "type": "ЖЖ"
        }
      ],
      "affixes": "лармыз",
      "phonet": [
        1,
        2
      ]
    },
    {
      "more": [
        {
          "aff": "дар",
          "type": "КЖ"
        },
        {
          "aff": "мыз",
          "type": "ЖЖ"
        }
      ],
      "affixes": "дармыз",
      "phonet": [
        3,
        5
      ]
    },
    {
      "more": [
        {
          "aff": "тар",
          "type": "КЖ"
        },
        {
          "aff": "мыз",
          "type": "ЖЖ"
        }
      ],
      "affixes": "тармыз",
      "phonet": [
        4
      ]
    },
    {
      "more": [
        {
          "aff": "сыз",
          "type": "ЖЖ"
        },
        {
          "aff": "лар",
          "type": "КЖ"
        }
      ],
      "affixes": "ларсыз",
      "phonet": [
        1,
        2
      ]
    },
    {
      "more": [
        {
          "aff": "дар",
          "type": "КЖ"
        },
        {
          "aff": "сыз",
          "type": "ЖЖ"
        }
      ],
      "affixes": "дарсыз",
      "phonet": [
        3,
        5
      ]
    },
    {
      "more": [
        {
          "aff": "сыз",
          "type": "ЖЖ"
        },
        {
          "aff": "тар",
          "type": "КЖ"
        }
      ],
      "affixes": "тарсыз",
      "phonet": [
        4
      ]
    },
    {
      "more": [
        {
          "aff": "мыз",
          "type": "ТЖ"
        },
        {
          "aff": "сыз",
          "type": "ЖЖ"
        }
      ],
      "affixes": "мызсыз",
      "phonet": [
        1
      ]
    },
    {
      "more": [
        {
          "aff": "ңыз",
          "type": "ТЖ"
        },
        {
          "aff": "бын",
          "type": "ЖЖ"
        }
      ],
      "affixes": "ңызбыз",
      "phonet": [
        1
      ]
    },
    {
      "more": [
        {
          "aff": "ңыз",
          "type": "ТЖ"
        },
        {
          "aff": "бын",
          "type": "ЖЖ"
        }
      ],
      "affixes": "ңызбын",
      "phonet": [
        1
      ]
    },
    {
      "more": [
        {
          "aff": "сыздар",
          "type": "ЖЖ"
        }
      ],
      "affixes": "сыздар",
      "phonet": [
        1,
        2,
        3,
        4,
        5
      ]
    },
    {
      "more": [
        {
          "aff": "сыңдар",
          "type": "ЖЖ"
        }
      ],
      "affixes": "сыңдар",
      "phonet": [
        1,
        2,
        3,
        4,
        5
      ]
    }
  ],
  "7": [
    {
      "more": [
        {
          "aff": "лар",
          "type": "КЖ"
        },
        {
          "aff": "да",
          "type": "ЖС"
        },
        {
          "aff": "ғы",
          "type": "ЖҰ"
        }
      ],
      "affixes": "дағылар",
      "phonet": [
        1,
        2,
        3,
        5
      ]
    },
    {
      "more": [
        {
          "aff": "та",
          "type": "ЖС"
        },
        {
          "aff": "ғы",
          "type": "ЖҰ"
        },
        {
          "aff": "лар",
          "type": "КЖ"
        }
      ],
      "affixes": "тағылар",
      "phonet": [
        4
      ]
    },
    {
      "more": [
        {
          "aff": "да",
          "type": "ЖС"
        },
        {
          "aff": "ғы",
          "type": "ЖҰ"
        },
        {
          "aff": "лар",
          "type": "КЖ"
        }
      ],
      "affixes": "лардағы",
      "phonet": [
        1,
        2
      ]
    },
    {
      "more": [
        {
          "aff": "ғы",
          "type": "ЖҰ"
        },
        {
          "aff": "тар",
          "type": "КЖ"
        },
        {
          "aff": "да",
          "type": "ЖС"
        }
      ],
      "affixes": "тардағы",
      "phonet": [
        4
      ]
    },
    {
      "more": [
        {
          "aff": "да",
          "type": "ЖС"
        },
        {
          "aff": "дар",
          "type": "КЖ"
        },
        {
          "aff": "ғы",
          "type": "ЖҰ"
        }
      ],
      "affixes": "дардағы",
      "phonet": [
        3,
        5
      ]
    },
    {
      "more": [
        {
          "aff": "ы",
          "type": "ТЖ"
        },
        {
          "aff": "ның",
          "type": "ІС"
        },
        {
          "aff": "лар",
          "type": "КЖ"
        }
      ],
      "affixes": "ларының",
      "phonet": [
        1,
        2
      ]
    },
    {
      "more": [
        {
          "aff": "тар",
          "type": "КЖ"
        },
        {
          "aff": "ы",
          "type": "ТЖ"
        },
        {
          "aff": "ның",
          "type": "ІС"
        }
      ],
      "affixes": "тарының",
      "phonet": [
        4
      ]
    },
    {
      "more": [
        {
          "aff": "ы",
          "type": "ТЖ"
        },
        {
          "aff": "дар",
          "type": "КЖ"
        },
        {
          "aff": "ның",
          "type": "ІС"
        }
      ],
      "affixes": "дарының",
      "phonet": [
        3,
        5
      ]
    },
    {
      "more": [
        {
          "aff": "да",
          "type": "ЖС"
        },
        {
          "aff": "лар",
          "type": "КЖ"
        },
        {
          "aff": "ым",
          "type": "ТЖ"
        }
      ],
      "affixes": "ларымда",
      "phonet": [
        1,
        2
      ]
    },
    {
      "more": [
        {
          "aff": "да",
          "type": "ЖС"
        },
        {
          "aff": "тар",
          "type": "КЖ"
        },
        {
          "aff": "ым",
          "type": "ТЖ"
        }
      ],
      "affixes": "тарымда",
      "phonet": [
        4
      ]
    },
    {
      "more": [
        {
          "aff": "ым",
          "type": "ТЖ"
        },
        {
          "aff": "дар",
          "type": "КЖ"
        },
        {
          "aff": "да",
          "type": "ЖС"
        }
      ],
      "affixes": "дарымда",
      "phonet": [
        3,
        5
      ]
    },
    {
      "more": [
        {
          "aff": "ды",
          "type": "ТС"
        },
        {
          "aff": "ым",
          "type": "ТЖ"
        },
        {
          "aff": "лар",
          "type": "КЖ"
        }
      ],
      "affixes": "ларымды",
      "phonet": [
        1,
        2
      ]
    },
    {
      "more": [
        {
          "aff": "тар",
          "type": "КЖ"
        },
        {
          "aff": "ды",
          "type": "ТС"
        },
        {
          "aff": "ым",
          "type": "ТЖ"
        }
      ],
      "affixes": "тарымды",
      "phonet": [
        4
      ]
    },
    {
      "more": [
        {
          "aff": "ды",
          "type": "ТС"
        },
        {
          "aff": "дар",
          "type": "КЖ"
        },
        {
          "aff": "ым",
          "type": "ТЖ"
        }
      ],
      "affixes": "дарымды",
      "phonet": [
        3,
        5
      ]
    },
    {
      "more": [
        {
          "aff": "лар",
          "type": "КЖ"
        },
        {
          "aff": "ы",
          "type": "ТЖ"
        },
        {
          "aff": "мен",
          "type": "КС"
        }
      ],
      "affixes": "ларымен",
      "phonet": [
        1,
        2
      ]
    },
    {
      "more": [
        {
          "aff": "ы",
          "type": "ТЖ"
        },
        {
          "aff": "мен",
          "type": "КС"
        },
        {
          "aff": "тар",
          "type": "КЖ"
        }
      ],
      "affixes": "тарымен",
      "phonet": [
        4
      ]
    },
    {
      "more": [
        {
          "aff": "мен",
          "type": "КС"
        },
        {
          "aff": "ы",
          "type": "ТЖ"
        },
        {
          "aff": "дар",
          "type": "КЖ"
        }
      ],
      "affixes": "дарымен",
      "phonet": [
        3,
        5
      ]
    },
    {
      "more": [
        {
          "aff": "лар",
          "type": "КЖ"
        },
        {
          "aff": "ымыз",
          "type": "ТЖ"
        }
      ],
      "affixes": "ларымыз",
      "phonet": [
        1,
        2
      ]
    },
    {
      "more": [
        {
          "aff": "ымыз",
          "type": "ТЖ"
        },
        {
          "aff": "тар",
          "type": "КЖ"
        }
      ],
      "affixes": "тарымыз",
      "phonet": [
        4
      ]
    },
    {
      "more": [
        {
          "aff": "дар",
          "type": "КЖ"
        },
        {
          "aff": "ымыз",
          "type": "ТЖ"
        }
      ],
      "affixes": "дарымыз",
      "phonet": [
        3,
        5
      ]
    },
    {
      "more": [
        {
          "aff": "ын",
          "type": "ТЖ"
        },
        {
          "aff": "да",
          "type": "ЖС"
        },
        {
          "aff": "лар",
          "type": "КЖ"
        }
      ],
      "affixes": "ларында",
      "phonet": [
        1,
        2
      ]
    },
    {
      "more": [
        {
          "aff": "ын",
          "type": "ТЖ"
        },
        {
          "aff": "тар",
          "type": "КЖ"
        },
        {
          "aff": "да",
          "type": "ЖС"
        }
      ],
      "affixes": "тарында",
      "phonet": [
        4
      ]
    },
    {
      "more": [
        {
          "aff": "ын",
          "type": "ТЖ"
        },
        {
          "aff": "да",
          "type": "ЖС"
        },
        {
          "aff": "дар",
          "type": "КЖ"
        }
      ],
      "affixes": "дарында",
      "phonet": [
        3,
        5
      ]
    },
    {
      "more": [
        {
          "aff": "ын",
          "type": "ТЖ"
        },
        {
          "aff": "е",
          "type": "БС"
        },
        {
          "aff": "тар",
          "type": "КЖ"
        }
      ],
      "affixes": "тарында",
      "phonet": [
        4
      ]
    },
    {
      "more": [
        {
          "aff": "дар",
          "type": "КЖ"
        },
        {
          "aff": "е",
          "type": "БС"
        },
        {
          "aff": "ын",
          "type": "ТЖ"
        }
      ],
      "affixes": "дарында",
      "phonet": [
        3,
        5
      ]
    },
    {
      "more": [
        {
          "aff": "лар",
          "type": "КЖ"
        },
        {
          "aff": "ыңыз",
          "type": "ТЖ"
        }
      ],
      "affixes": "ларыңыз",
      "phonet": [
        1,
        2
      ]
    },
    {
      "more": [
        {
          "aff": "тар",
          "type": "КЖ"
        },
        {
          "aff": "ыңыз",
          "type": "ТЖ"
        }
      ],
      "affixes": "тарыңыз",
      "phonet": [
        4
      ]
    },
    {
      "more": [
        {
          "aff": "ыңыз",
          "type": "ТЖ"
        },
        {
          "aff": "дар",
          "type": "КЖ"
        }
      ],
      "affixes": "дарыңыз",
      "phonet": [
        3,
        5
      ]
    },
    {
      "more": [
        {
          "aff": "менен",
          "type": "КС"
        },
        {
          "aff": "ым",
          "type": "ТЖ"
        }
      ],
      "affixes": "ымменен",
      "phonet": [
        2,
        3,
        4,
        5
      ]
    },
    {
      "more": [
        {
          "aff": "бен",
          "type": "КС"
        },
        {
          "aff": "ымыз",
          "type": "ТЖ"
        }
      ],
      "affixes": "ымызбен",
      "phonet": [
        2,
        3,
        4,
        5
      ]
    },
    {
      "more": [
        {
          "aff": "ымыз",
          "type": "ТЖ"
        },
        {
          "aff": "дан",
          "type": "ШС"
        }
      ],
      "affixes": "ымыздан",
      "phonet": [
        2,
        3,
        4,
        5
      ]
    },
    {
      "more": [
        {
          "aff": "дың",
          "type": "ІС"
        },
        {
          "aff": "ымыз",
          "type": "ТЖ"
        }
      ],
      "affixes": "ымыздың",
      "phonet": [
        2,
        3,
        4,
        5
      ]
    },
    {
      "more": [
        {
          "aff": "на",
          "type": "БС"
        },
        {
          "aff": "дікі",
          "type": "Тиіс"
        },
        {
          "aff": "ң",
          "type": "ТЖ"
        }
      ],
      "affixes": "ңдікіне",
      "phonet": [
        1
      ]
    },
    {
      "more": [
        {
          "aff": "менен",
          "type": "КС"
        },
        {
          "aff": "ың",
          "type": "ТЖ"
        }
      ],
      "affixes": "ыңменен",
      "phonet": [
        2,
        3,
        4,
        5
      ]
    },
    {
      "more": [
        {
          "aff": "бен",
          "type": "КС"
        },
        {
          "aff": "ыңыз",
          "type": "ТЖ"
        }
      ],
      "affixes": "ыңызбен",
      "phonet": [
        2,
        3,
        4,
        5
      ]
    },
    {
      "more": [
        {
          "aff": "ға",
          "type": "БС"
        },
        {
          "aff": "ыңыз",
          "type": "ТЖ"
        }
      ],
      "affixes": "ыңызбға",
      "phonet": [
        2,
        3,
        4,
        5
      ]
    },
    {
      "more": [
        {
          "aff": "дан",
          "type": "ШС"
        },
        {
          "aff": "ыңыз",
          "type": "ТЖ"
        }
      ],
      "affixes": "ыңыздан",
      "phonet": [
        2,
        3,
        4,
        5
      ]
    },
    {
      "more": [
        {
          "aff": "дікі",
          "type": "Тиіс"
        },
        {
          "aff": "ңыз",
          "type": "ТЖ"
        }
      ],
      "affixes": "ңыздікі",
      "phonet": [
        1
      ]
    },
    {
      "more": [
        {
          "aff": "ыңыз",
          "type": "ТЖ"
        },
        {
          "aff": "дың",
          "type": "ІС"
        }
      ],
      "affixes": "ыңыздың",
      "phonet": [
        2,
        3,
        4,
        5
      ]
    },
    {
      "more": [
        {
          "aff": "сы",
          "type": "ТЖ"
        },
        {
          "aff": "менен",
          "type": "КС"
        }
      ],
      "affixes": "сыменен",
      "phonet": [
        1
      ]
    },
    {
      "more": [
        {
          "aff": "ы",
          "type": "ТЖ"
        },
        {
          "aff": "на",
          "type": "БС"
        },
        {
          "aff": "нікі",
          "type": "Тиіс"
        }
      ],
      "affixes": "ынікіне",
      "phonet": [
        2,
        3,
        4,
        5
      ]
    },
    {
      "more": [
        {
          "aff": "лар",
          "type": "КЖ"
        },
        {
          "aff": "сыз",
          "type": "ЖЖ"
        },
        {
          "aff": "ы",
          "type": "ТЖ"
        }
      ],
      "affixes": "ларысыз",
      "phonet": [
        1,
        2
      ]
    },
    {
      "more": [
        {
          "aff": "дар",
          "type": "КЖ"
        },
        {
          "aff": "ы",
          "type": "ТЖ"
        },
        {
          "aff": "сыз",
          "type": "ЖЖ"
        }
      ],
      "affixes": "дарысыз",
      "phonet": [
        3,
        5
      ]
    },
    {
      "more": [
        {
          "aff": "ы",
          "type": "ТЖ"
        },
        {
          "aff": "сыз",
          "type": "ЖЖ"
        },
        {
          "aff": "тар",
          "type": "КЖ"
        }
      ],
      "affixes": "тарысыз",
      "phonet": [
        4
      ]
    },
    {
      "more": [
        {
          "aff": "м",
          "type": "ТЖ"
        },
        {
          "aff": "сыздар",
          "type": "ЖЖ"
        }
      ],
      "affixes": "мсыздар",
      "phonet": [
        1
      ]
    },
    {
      "more": [
        {
          "aff": "м",
          "type": "ТЖ"
        },
        {
          "aff": "сыңдар",
          "type": "ЖЖ"
        }
      ],
      "affixes": "мсыңдар",
      "phonet": [
        1
      ]
    },
    {
      "more": [
        {
          "aff": "сыз",
          "type": "ЖЖ"
        },
        {
          "aff": "ымыз",
          "type": "ТЖ"
        }
      ],
      "affixes": "ымызсыз",
      "phonet": [
        2,
        3,
        4,
        5
      ]
    },
    {
      "more": [
        {
          "aff": "бын",
          "type": "ЖЖ"
        },
        {
          "aff": "ыңыз",
          "type": "ТЖ"
        }
      ],
      "affixes": "ыңызбыз",
      "phonet": [
        2,
        3,
        4,
        5
      ]
    },
    {
      "more": [
        {
          "aff": "ыңыз",
          "type": "ТЖ"
        },
        {
          "aff": "бын",
          "type": "ЖЖ"
        }
      ],
      "affixes": "ыңызбын",
      "phonet": [
        2,
        3,
        4,
        5
      ]
    },
    {
      "more": [
        {
          "aff": "ы",
          "type": "ТЖ"
        },
        {
          "aff": "сыздар",
          "type": "ЖЖ"
        }
      ],
      "affixes": "ысыздар",
      "phonet": [
        2,
        3,
        4,
        5
      ]
    },
    {
      "more": [
        {
          "aff": "сыңдар",
          "type": "ЖЖ"
        },
        {
          "aff": "ы",
          "type": "ТЖ"
        }
      ],
      "affixes": "ысыңдар",
      "phonet": [
        2,
        3,
        4,
        5
      ]
    }
  ],
  "8": [
    {
      "more": [
        {
          "aff": "лар",
          "type": "КЖ"
        },
        {
          "aff": "менен",
          "type": "КС"
        }
      ],
      "affixes": "ларменен",
      "phonet": [
        1,
        2
      ]
    },
    {
      "more": [
        {
          "aff": "тар",
          "type": "КЖ"
        },
        {
          "aff": "менен",
          "type": "КС"
        }
      ],
      "affixes": "тарменен",
      "phonet": [
        4
      ]
    },
    {
      "more": [
        {
          "aff": "дар",
          "type": "КЖ"
        },
        {
          "aff": "менен",
          "type": "КС"
        }
      ],
      "affixes": "дарменен",
      "phonet": [
        3,
        5
      ]
    },
    {
      "more": [
        {
          "aff": "мен",
          "type": "КС"
        },
        {
          "aff": "ым",
          "type": "ТЖ"
        },
        {
          "aff": "лар",
          "type": "КЖ"
        }
      ],
      "affixes": "ларыммен",
      "phonet": [
        1,
        2
      ]
    },
    {
      "more": [
        {
          "aff": "мен",
          "type": "КС"
        },
        {
          "aff": "ым",
          "type": "ТЖ"
        },
        {
          "aff": "тар",
          "type": "КЖ"
        }
      ],
      "affixes": "тарыммен",
      "phonet": [
        4
      ]
    },
    {
      "more": [
        {
          "aff": "мен",
          "type": "КС"
        },
        {
          "aff": "дар",
          "type": "КЖ"
        },
        {
          "aff": "ым",
          "type": "ТЖ"
        }
      ],
      "affixes": "дарыммен",
      "phonet": [
        3,
        5
      ]
    },
    {
      "more": [
        {
          "aff": "лар",
          "type": "КЖ"
        },
        {
          "aff": "нан",
          "type": "ШС"
        },
        {
          "aff": "ым",
          "type": "ТЖ"
        }
      ],
      "affixes": "ларымнан",
      "phonet": [
        1,
        2
      ]
    },
    {
      "more": [
        {
          "aff": "ым",
          "type": "ТЖ"
        },
        {
          "aff": "нан",
          "type": "ШС"
        },
        {
          "aff": "тар",
          "type": "КЖ"
        }
      ],
      "affixes": "тарымнан",
      "phonet": [
        4
      ]
    },
    {
      "more": [
        {
          "aff": "ым",
          "type": "ТЖ"
        },
        {
          "aff": "нан",
          "type": "ШС"
        },
        {
          "aff": "дар",
          "type": "КЖ"
        }
      ],
      "affixes": "дарымнан",
      "phonet": [
        3,
        5
      ]
    },
    {
      "more": [
        {
          "aff": "ның",
          "type": "ІС"
        },
        {
          "aff": "ым",
          "type": "ТЖ"
        },
        {
          "aff": "лар",
          "type": "КЖ"
        }
      ],
      "affixes": "ларымның",
      "phonet": [
        1,
        2
      ]
    },
    {
      "more": [
        {
          "aff": "ның",
          "type": "ІС"
        },
        {
          "aff": "ым",
          "type": "ТЖ"
        },
        {
          "aff": "тар",
          "type": "КЖ"
        }
      ],
      "affixes": "тарымның",
      "phonet": [
        4
      ]
    },
    {
      "more": [
        {
          "aff": "ның",
          "type": "ІС"
        },
        {
          "aff": "дар",
          "type": "КЖ"
        },
        {
          "aff": "ым",
          "type": "ТЖ"
        }
      ],
      "affixes": "дарымның",
      "phonet": [
        3,
        5
      ]
    },
    {
      "more": [
        {
          "aff": "лар",
          "type": "КЖ"
        },
        {
          "aff": "ың",
          "type": "ТЖ"
        },
        {
          "aff": "мен",
          "type": "КС"
        }
      ],
      "affixes": "ларыңмен",
      "phonet": [
        1,
        2
      ]
    },
    {
      "more": [
        {
          "aff": "тар",
          "type": "КЖ"
        },
        {
          "aff": "мен",
          "type": "КС"
        },
        {
          "aff": "ың",
          "type": "ТЖ"
        }
      ],
      "affixes": "тарыңмен",
      "phonet": [
        4
      ]
    },
    {
      "more": [
        {
          "aff": "дар",
          "type": "КЖ"
        },
        {
          "aff": "ың",
          "type": "ТЖ"
        },
        {
          "aff": "мен",
          "type": "КС"
        }
      ],
      "affixes": "дарыңмен",
      "phonet": [
        3,
        5
      ]
    },
    {
      "more": [
        {
          "aff": "ың",
          "type": "ТЖ"
        },
        {
          "aff": "лар",
          "type": "КЖ"
        },
        {
          "aff": "нан",
          "type": "ШС"
        }
      ],
      "affixes": "ларыңнан",
      "phonet": [
        1,
        2
      ]
    },
    {
      "more": [
        {
          "aff": "тар",
          "type": "КЖ"
        },
        {
          "aff": "нан",
          "type": "ШС"
        },
        {
          "aff": "ың",
          "type": "ТЖ"
        }
      ],
      "affixes": "тарыңнан",
      "phonet": [
        4
      ]
    },
    {
      "more": [
        {
          "aff": "ың",
          "type": "ТЖ"
        },
        {
          "aff": "нан",
          "type": "ШС"
        },
        {
          "aff": "дар",
          "type": "КЖ"
        }
      ],
      "affixes": "дарыңнан",
      "phonet": [
        3,
        5
      ]
    },
    {
      "more": [
        {
          "aff": "ның",
          "type": "КС"
        },
        {
          "aff": "ың",
          "type": "ТЖ"
        },
        {
          "aff": "лар",
          "type": "КЖ"
        }
      ],
      "affixes": "ларыңның",
      "phonet": [
        1,
        2
      ]
    },
    {
      "more": [
        {
          "aff": "тар",
          "type": "КЖ"
        },
        {
          "aff": "ның",
          "type": "КС"
        },
        {
          "aff": "ың",
          "type": "ТЖ"
        }
      ],
      "affixes": "тарыңның",
      "phonet": [
        4
      ]
    },
    {
      "more": [
        {
          "aff": "дар",
          "type": "КЖ"
        },
        {
          "aff": "ың",
          "type": "ТЖ"
        },
        {
          "aff": "ның",
          "type": "КС"
        }
      ],
      "affixes": "дарыңның",
      "phonet": [
        3,
        5
      ]
    },
    {
      "more": [
        {
          "aff": "бенен",
          "type": "КС"
        },
        {
          "aff": "мыз",
          "type": "ТЖ"
        }
      ],
      "affixes": "мызбенен",
      "phonet": [
        1
      ]
    },
    {
      "more": [
        {
          "aff": "мен",
          "type": "КС"
        },
        {
          "aff": "ң",
          "type": "ТЖ"
        },
        {
          "aff": "дікі",
          "type": "Тиіс"
        }
      ],
      "affixes": "ңдікімен",
      "phonet": [
        1
      ]
    },
    {
      "more": [
        {
          "aff": "дікі",
          "type": "Тиіс"
        },
        {
          "aff": "ың",
          "type": "ТЖ"
        },
        {
          "aff": "на",
          "type": "БС"
        }
      ],
      "affixes": "ыңдікіне",
      "phonet": [
        2,
        3,
        4,
        5
      ]
    },
    {
      "more": [
        {
          "aff": "дікі",
          "type": "Тиіс"
        },
        {
          "aff": "ң",
          "type": "ТЖ"
        },
        {
          "aff": "нан",
          "type": "ШС"
        }
      ],
      "affixes": "ңдікінен",
      "phonet": [
        1
      ]
    },
    {
      "more": [
        {
          "aff": "ның",
          "type": "ІС"
        },
        {
          "aff": "ң",
          "type": "ТЖ"
        },
        {
          "aff": "дікі",
          "type": "Тиіс"
        }
      ],
      "affixes": "ңдікінің",
      "phonet": [
        1
      ]
    },
    {
      "more": [
        {
          "aff": "ңыз",
          "type": "ТЖ"
        },
        {
          "aff": "бенен",
          "type": "КС"
        }
      ],
      "affixes": "ңызбенен",
      "phonet": [
        1
      ]
    },
    {
      "more": [
        {
          "aff": "дікі",
          "type": "Тиіс"
        },
        {
          "aff": "ыңыз",
          "type": "ТЖ"
        }
      ],
      "affixes": "ыңыздікі",
      "phonet": [
        2,
        3,
        4,
        5
      ]
    },
    {
      "more": [
        {
          "aff": "нікі",
          "type": "Тиіс"
        },
        {
          "aff": "мен",
          "type": "КС"
        },
        {
          "aff": "ы",
          "type": "ТЖ"
        }
      ],
      "affixes": "ынікімен",
      "phonet": [
        2,
        3,
        4,
        5
      ]
    },
    {
      "more": [
        {
          "aff": "на",
          "type": "БС"
        },
        {
          "aff": "нікі",
          "type": "Тиіс"
        },
        {
          "aff": "сы",
          "type": "ТЖ"
        }
      ],
      "affixes": "сынікіне",
      "phonet": [
        1
      ]
    },
    {
      "more": [
        {
          "aff": "ы",
          "type": "ТЖ"
        },
        {
          "aff": "нан",
          "type": "ШС"
        },
        {
          "aff": "нікі",
          "type": "Тиіс"
        }
      ],
      "affixes": "ынікінен",
      "phonet": [
        2,
        3,
        4,
        5
      ]
    },
    {
      "more": [
        {
          "aff": "нікі",
          "type": "Тиіс"
        },
        {
          "aff": "ы",
          "type": "ТЖ"
        },
        {
          "aff": "ның",
          "type": "ІС"
        }
      ],
      "affixes": "ынікінің",
      "phonet": [
        2,
        3,
        4,
        5
      ]
    },
    {
      "more": [
        {
          "aff": "ым",
          "type": "ТЖ"
        },
        {
          "aff": "сыздар",
          "type": "ЖЖ"
        }
      ],
      "affixes": "ымсыздар",
      "phonet": [
        2,
        3,
        4,
        5
      ]
    },
    {
      "more": [
        {
          "aff": "ым",
          "type": "ТЖ"
        },
        {
          "aff": "сыңдар",
          "type": "ЖЖ"
        }
      ],
      "affixes": "ымсыңдар",
      "phonet": [
        2,
        3,
        4,
        5
      ]
    },
    {
      "more": [
        {
          "aff": "сы",
          "type": "ТЖ"
        },
        {
          "aff": "сыздар",
          "type": "ЖЖ"
        }
      ],
      "affixes": "сысыздар",
      "phonet": [
        1
      ]
    },
    {
      "more": [
        {
          "aff": "сыңдар",
          "type": "ЖЖ"
        },
        {
          "aff": "сы",
          "type": "ТЖ"
        }
      ],
      "affixes": "сысыңдар",
      "phonet": [
        1
      ]
    }
  ],
  "9": [
    {
      "more": [
        {
          "aff": "менен",
          "type": "КС"
        },
        {
          "aff": "ы",
          "type": "ТЖ"
        },
        {
          "aff": "лар",
          "type": "КЖ"
        }
      ],
      "affixes": "ларыменен",
      "phonet": [
        1,
        2
      ]
    },
    {
      "more": [
        {
          "aff": "менен",
          "type": "КС"
        },
        {
          "aff": "ы",
          "type": "ТЖ"
        },
        {
          "aff": "тар",
          "type": "КЖ"
        }
      ],
      "affixes": "тарыменен",
      "phonet": [
        4
      ]
    },
    {
      "more": [
        {
          "aff": "дар",
          "type": "КЖ"
        },
        {
          "aff": "ы",
          "type": "ТЖ"
        },
        {
          "aff": "менен",
          "type": "КС"
        }
      ],
      "affixes": "дарыменен",
      "phonet": [
        3,
        5
      ]
    },
    {
      "more": [
        {
          "aff": "ға",
          "type": "БС"
        },
        {
          "aff": "ымыз",
          "type": "ТЖ"
        },
        {
          "aff": "лар",
          "type": "КЖ"
        }
      ],
      "affixes": "ларымызға",
      "phonet": [
        1,
        2
      ]
    },
    {
      "more": [
        {
          "aff": "ға",
          "type": "БС"
        },
        {
          "aff": "ымыз",
          "type": "ТЖ"
        },
        {
          "aff": "тар",
          "type": "КЖ"
        }
      ],
      "affixes": "тарымызға",
      "phonet": [
        4
      ]
    },
    {
      "more": [
        {
          "aff": "дар",
          "type": "КЖ"
        },
        {
          "aff": "ымыз",
          "type": "ТЖ"
        },
        {
          "aff": "ға",
          "type": "БС"
        }
      ],
      "affixes": "дарымызға",
      "phonet": [
        3,
        5
      ]
    },
    {
      "more": [
        {
          "aff": "лар",
          "type": "КЖ"
        },
        {
          "aff": "ымыз",
          "type": "ТЖ"
        },
        {
          "aff": "да",
          "type": "ЖС"
        }
      ],
      "affixes": "ларымызда",
      "phonet": [
        1,
        2
      ]
    },
    {
      "more": [
        {
          "aff": "ымыз",
          "type": "ТЖ"
        },
        {
          "aff": "да",
          "type": "ЖС"
        },
        {
          "aff": "тар",
          "type": "КЖ"
        }
      ],
      "affixes": "тарымызда",
      "phonet": [
        4
      ]
    },
    {
      "more": [
        {
          "aff": "дар",
          "type": "КЖ"
        },
        {
          "aff": "да",
          "type": "ЖС"
        },
        {
          "aff": "ымыз",
          "type": "ТЖ"
        }
      ],
      "affixes": "дарымызда",
      "phonet": [
        3,
        5
      ]
    },
    {
      "more": [
        {
          "aff": "лар",
          "type": "КЖ"
        },
        {
          "aff": "ды",
          "type": "ТС"
        },
        {
          "aff": "ымыз",
          "type": "ТЖ"
        }
      ],
      "affixes": "ларымызды",
      "phonet": [
        1,
        2
      ]
    },
    {
      "more": [
        {
          "aff": "ымыз",
          "type": "ТЖ"
        },
        {
          "aff": "ды",
          "type": "ТС"
        },
        {
          "aff": "тар",
          "type": "КЖ"
        }
      ],
      "affixes": "тарымызды",
      "phonet": [
        4
      ]
    },
    {
      "more": [
        {
          "aff": "дар",
          "type": "КЖ"
        },
        {
          "aff": "ымыз",
          "type": "ТЖ"
        },
        {
          "aff": "ды",
          "type": "ТС"
        }
      ],
      "affixes": "дарымызды",
      "phonet": [
        3,
        5
      ]
    },
    {
      "more": [
        {
          "aff": "лар",
          "type": "КЖ"
        },
        {
          "aff": "ға",
          "type": "БС"
        },
        {
          "aff": "ыңыз",
          "type": "ТЖ"
        }
      ],
      "affixes": "ларыңызға",
      "phonet": [
        1,
        2
      ]
    },
    {
      "more": [
        {
          "aff": "ға",
          "type": "БС"
        },
        {
          "aff": "тар",
          "type": "КЖ"
        },
        {
          "aff": "ыңыз",
          "type": "ТЖ"
        }
      ],
      "affixes": "тарыңызға",
      "phonet": [
        4
      ]
    },
    {
      "more": [
        {
          "aff": "ыңыз",
          "type": "ТЖ"
        },
        {
          "aff": "дар",
          "type": "КЖ"
        },
        {
          "aff": "ға",
          "type": "БС"
        }
      ],
      "affixes": "дарыңызға",
      "phonet": [
        3,
        5
      ]
    },
    {
      "more": [
        {
          "aff": "ыңыз",
          "type": "ТЖ"
        },
        {
          "aff": "да",
          "type": "ЖС"
        },
        {
          "aff": "лар",
          "type": "КЖ"
        }
      ],
      "affixes": "ларыңызда",
      "phonet": [
        1,
        2
      ]
    },
    {
      "more": [
        {
          "aff": "тар",
          "type": "КЖ"
        },
        {
          "aff": "ыңыз",
          "type": "ТЖ"
        },
        {
          "aff": "да",
          "type": "ЖС"
        }
      ],
      "affixes": "тарыңызда",
      "phonet": [
        4
      ]
    },
    {
      "more": [
        {
          "aff": "ыңыз",
          "type": "ТЖ"
        },
        {
          "aff": "дар",
          "type": "КЖ"
        },
        {
          "aff": "да",
          "type": "ЖС"
        }
      ],
      "affixes": "дарыңызда",
      "phonet": [
        3,
        5
      ]
    },
    {
      "more": [
        {
          "aff": "ыңыз",
          "type": "ТЖ"
        },
        {
          "aff": "ды",
          "type": "ТС"
        },
        {
          "aff": "лар",
          "type": "КЖ"
        }
      ],
      "affixes": "ларыңызды",
      "phonet": [
        1,
        2
      ]
    },
    {
      "more": [
        {
          "aff": "ыңыз",
          "type": "ТЖ"
        },
        {
          "aff": "тар",
          "type": "КЖ"
        },
        {
          "aff": "ды",
          "type": "ТС"
        }
      ],
      "affixes": "тарыңызды",
      "phonet": [
        4
      ]
    },
    {
      "more": [
        {
          "aff": "ды",
          "type": "ТС"
        },
        {
          "aff": "дар",
          "type": "КЖ"
        },
        {
          "aff": "ыңыз",
          "type": "ТЖ"
        }
      ],
      "affixes": "дарыңызды",
      "phonet": [
        3,
        5
      ]
    },
    {
      "more": [
        {
          "aff": "ымыз",
          "type": "ТЖ"
        },
        {
          "aff": "бенен",
          "type": "КС"
        }
      ],
      "affixes": "ымызбенен",
      "phonet": [
        2,
        3,
        4,
        5
      ]
    },
    {
      "more": [
        {
          "aff": "мен",
          "type": "КС"
        },
        {
          "aff": "ың",
          "type": "ТЖ"
        },
        {
          "aff": "дікі",
          "type": "Тиіс"
        }
      ],
      "affixes": "ыңдікімен",
      "phonet": [
        2,
        3,
        4,
        5
      ]
    },
    {
      "more": [
        {
          "aff": "ың",
          "type": "ТЖ"
        },
        {
          "aff": "дікі",
          "type": "Тиіс"
        },
        {
          "aff": "нан",
          "type": "ШС"
        }
      ],
      "affixes": "ыңдікінен",
      "phonet": [
        2,
        3,
        4,
        5
      ]
    },
    {
      "more": [
        {
          "aff": "ың",
          "type": "ТЖ"
        },
        {
          "aff": "ның",
          "type": "ІС"
        },
        {
          "aff": "дікі",
          "type": "Тиіс"
        }
      ],
      "affixes": "ыңдікінің",
      "phonet": [
        2,
        3,
        4,
        5
      ]
    },
    {
      "more": [
        {
          "aff": "бенен",
          "type": "КС"
        },
        {
          "aff": "ыңыз",
          "type": "ТЖ"
        }
      ],
      "affixes": "ыңызбенен",
      "phonet": [
        2,
        3,
        4,
        5
      ]
    },
    {
      "more": [
        {
          "aff": "на",
          "type": "БС"
        },
        {
          "aff": "дікі",
          "type": "Тиіс"
        },
        {
          "aff": "ңыз",
          "type": "ТЖ"
        }
      ],
      "affixes": "ңыздікіне",
      "phonet": [
        1
      ]
    },
    {
      "more": [
        {
          "aff": "мен",
          "type": "КС"
        },
        {
          "aff": "нікі",
          "type": "Тиіс"
        },
        {
          "aff": "сы",
          "type": "ТЖ"
        }
      ],
      "affixes": "сынікімен",
      "phonet": [
        1
      ]
    },
    {
      "more": [
        {
          "aff": "нікі",
          "type": "Тиіс"
        },
        {
          "aff": "сы",
          "type": "ТЖ"
        },
        {
          "aff": "нан",
          "type": "ШС"
        }
      ],
      "affixes": "сынікінен",
      "phonet": [
        1
      ]
    },
    {
      "more": [
        {
          "aff": "ның",
          "type": "ІС"
        },
        {
          "aff": "нікі",
          "type": "Тиіс"
        },
        {
          "aff": "сы",
          "type": "ТЖ"
        }
      ],
      "affixes": "сынікінің",
      "phonet": [
        1
      ]
    },
    {
      "more": [
        {
          "aff": "сыздар",
          "type": "ЖЖ"
        },
        {
          "aff": "лар",
          "type": "КЖ"
        }
      ],
      "affixes": "ларсыздар",
      "phonet": [
        1,
        2
      ]
    },
    {
      "more": [
        {
          "aff": "сыздар",
          "type": "ЖЖ"
        },
        {
          "aff": "дар",
          "type": "КЖ"
        }
      ],
      "affixes": "дарсыздар",
      "phonet": [
        3,
        5
      ]
    },
    {
      "more": [
        {
          "aff": "сыздар",
          "type": "ЖЖ"
        },
        {
          "aff": "тар",
          "type": "КЖ"
        }
      ],
      "affixes": "тарсыздар",
      "phonet": [
        4
      ]
    },
    {
      "more": [
        {
          "aff": "лар",
          "type": "КЖ"
        },
        {
          "aff": "сыңдар",
          "type": "ЖЖ"
        }
      ],
      "affixes": "ларсыңдар",
      "phonet": [
        1,
        2
      ]
    },
    {
      "more": [
        {
          "aff": "дар",
          "type": "КЖ"
        },
        {
          "aff": "сыңдар",
          "type": "ЖЖ"
        }
      ],
      "affixes": "дарсыңдар",
      "phonet": [
        3,
        5
      ]
    },
    {
      "more": [
        {
          "aff": "тар",
          "type": "КЖ"
        },
        {
          "aff": "сыңдар",
          "type": "ЖЖ"
        }
      ],
      "affixes": "тарсыңдар",
      "phonet": [
        4
      ]
    },
    {
      "more": [
        {
          "aff": "сыздар",
          "type": "ЖЖ"
        },
        {
          "aff": "мыз",
          "type": "ТЖ"
        }
      ],
      "affixes": "мызсыздар",
      "phonet": [
        1
      ]
    },
    {
      "more": [
        {
          "aff": "мыз",
          "type": "ТЖ"
        },
        {
          "aff": "сыңдар",
          "type": "ЖЖ"
        }
      ],
      "affixes": "мызсыңдар",
      "phonet": [
        1
      ]
    }
  ],
  "10": [
    {
      "more": [
        {
          "aff": "менен",
          "type": "КС"
        },
        {
          "aff": "ым",
          "type": "ТЖ"
        },
        {
          "aff": "лар",
          "type": "КЖ"
        }
      ],
      "affixes": "ларымменен",
      "phonet": [
        1,
        2
      ]
    },
    {
      "more": [
        {
          "aff": "менен",
          "type": "КС"
        },
        {
          "aff": "тар",
          "type": "КЖ"
        },
        {
          "aff": "ым",
          "type": "ТЖ"
        }
      ],
      "affixes": "тарымменен",
      "phonet": [
        4
      ]
    },
    {
      "more": [
        {
          "aff": "ым",
          "type": "ТЖ"
        },
        {
          "aff": "менен",
          "type": "КС"
        },
        {
          "aff": "дар",
          "type": "КЖ"
        }
      ],
      "affixes": "дарымменен",
      "phonet": [
        3,
        5
      ]
    },
    {
      "more": [
        {
          "aff": "ымыз",
          "type": "ТЖ"
        },
        {
          "aff": "лар",
          "type": "КЖ"
        },
        {
          "aff": "бен",
          "type": "КС"
        }
      ],
      "affixes": "ларымызбен",
      "phonet": [
        1,
        2
      ]
    },
    {
      "more": [
        {
          "aff": "тар",
          "type": "КЖ"
        },
        {
          "aff": "бен",
          "type": "КС"
        },
        {
          "aff": "ымыз",
          "type": "ТЖ"
        }
      ],
      "affixes": "тарымызбен",
      "phonet": [
        4
      ]
    },
    {
      "more": [
        {
          "aff": "ымыз",
          "type": "ТЖ"
        },
        {
          "aff": "дар",
          "type": "КЖ"
        },
        {
          "aff": "бен",
          "type": "КС"
        }
      ],
      "affixes": "дарымызбен",
      "phonet": [
        3,
        5
      ]
    },
    {
      "more": [
        {
          "aff": "дан",
          "type": "ШС"
        },
        {
          "aff": "ымыз",
          "type": "ТЖ"
        },
        {
          "aff": "лар",
          "type": "КЖ"
        }
      ],
      "affixes": "ларымыздан",
      "phonet": [
        1,
        2
      ]
    },
    {
      "more": [
        {
          "aff": "ымыз",
          "type": "ТЖ"
        },
        {
          "aff": "дан",
          "type": "ШС"
        },
        {
          "aff": "тар",
          "type": "КЖ"
        }
      ],
      "affixes": "тарымыздан",
      "phonet": [
        4
      ]
    },
    {
      "more": [
        {
          "aff": "дар",
          "type": "КЖ"
        },
        {
          "aff": "ымыз",
          "type": "ТЖ"
        },
        {
          "aff": "дан",
          "type": "ШС"
        }
      ],
      "affixes": "дарымыздан",
      "phonet": [
        3,
        5
      ]
    },
    {
      "more": [
        {
          "aff": "лар",
          "type": "КЖ"
        },
        {
          "aff": "ымыз",
          "type": "ТЖ"
        },
        {
          "aff": "дың",
          "type": "ІС"
        }
      ],
      "affixes": "ларымыздың",
      "phonet": [
        1,
        2
      ]
    },
    {
      "more": [
        {
          "aff": "дың",
          "type": "ІС"
        },
        {
          "aff": "тар",
          "type": "КЖ"
        },
        {
          "aff": "ымыз",
          "type": "ТЖ"
        }
      ],
      "affixes": "тарымыздың",
      "phonet": [
        4
      ]
    },
    {
      "more": [
        {
          "aff": "ымыз",
          "type": "ТЖ"
        },
        {
          "aff": "дың",
          "type": "ІС"
        },
        {
          "aff": "дар",
          "type": "КЖ"
        }
      ],
      "affixes": "дарымыздың",
      "phonet": [
        3,
        5
      ]
    },
    {
      "more": [
        {
          "aff": "лар",
          "type": "КЖ"
        },
        {
          "aff": "менен",
          "type": "КС"
        },
        {
          "aff": "ың",
          "type": "ТЖ"
        }
      ],
      "affixes": "ларыңменен",
      "phonet": [
        1,
        2
      ]
    },
    {
      "more": [
        {
          "aff": "тар",
          "type": "КЖ"
        },
        {
          "aff": "менен",
          "type": "КС"
        },
        {
          "aff": "ың",
          "type": "ТЖ"
        }
      ],
      "affixes": "тарыңменен",
      "phonet": [
        4
      ]
    },
    {
      "more": [
        {
          "aff": "менен",
          "type": "КС"
        },
        {
          "aff": "ың",
          "type": "ТЖ"
        },
        {
          "aff": "дар",
          "type": "КЖ"
        }
      ],
      "affixes": "дарыңменен",
      "phonet": [
        3,
        5
      ]
    },
    {
      "more": [
        {
          "aff": "бен",
          "type": "КС"
        },
        {
          "aff": "ыңыз",
          "type": "ТЖ"
        },
        {
          "aff": "лар",
          "type": "КЖ"
        }
      ],
      "affixes": "ларыңызбен",
      "phonet": [
        1,
        2
      ]
    },
    {
      "more": [
        {
          "aff": "тар",
          "type": "КЖ"
        },
        {
          "aff": "ыңыз",
          "type": "ТЖ"
        },
        {
          "aff": "бен",
          "type": "КС"
        }
      ],
      "affixes": "тарыңызбен",
      "phonet": [
        4
      ]
    },
    {
      "more": [
        {
          "aff": "бен",
          "type": "КС"
        },
        {
          "aff": "дар",
          "type": "КЖ"
        },
        {
          "aff": "ыңыз",
          "type": "ТЖ"
        }
      ],
      "affixes": "дарыңызбен",
      "phonet": [
        3,
        5
      ]
    },
    {
      "more": [
        {
          "aff": "ыңыз",
          "type": "ТЖ"
        },
        {
          "aff": "дан",
          "type": "ШС"
        },
        {
          "aff": "лар",
          "type": "КЖ"
        }
      ],
      "affixes": "ларыңыздан",
      "phonet": [
        1,
        2
      ]
    },
    {
      "more": [
        {
          "aff": "ыңыз",
          "type": "ТЖ"
        },
        {
          "aff": "тар",
          "type": "КЖ"
        },
        {
          "aff": "дан",
          "type": "ШС"
        }
      ],
      "affixes": "тарыңыздан",
      "phonet": [
        4
      ]
    },
    {
      "more": [
        {
          "aff": "дан",
          "type": "ШС"
        },
        {
          "aff": "дар",
          "type": "КЖ"
        },
        {
          "aff": "ыңыз",
          "type": "ТЖ"
        }
      ],
      "affixes": "дарыңыздан",
      "phonet": [
        3,
        5
      ]
    },
    {
      "more": [
        {
          "aff": "ыңыз",
          "type": "ТЖ"
        },
        {
          "aff": "дың",
          "type": "ІС"
        },
        {
          "aff": "лар",
          "type": "КЖ"
        }
      ],
      "affixes": "ларыңыздың",
      "phonet": [
        1,
        2
      ]
    },
    {
      "more": [
        {
          "aff": "тар",
          "type": "КЖ"
        },
        {
          "aff": "ыңыз",
          "type": "ТЖ"
        },
        {
          "aff": "дың",
          "type": "ІС"
        }
      ],
      "affixes": "тарыңыздың",
      "phonet": [
        4
      ]
    },
    {
      "more": [
        {
          "aff": "дың",
          "type": "ІС"
        },
        {
          "aff": "дар",
          "type": "КЖ"
        },
        {
          "aff": "ыңыз",
          "type": "ТЖ"
        }
      ],
      "affixes": "дарыңыздың",
      "phonet": [
        3,
        5
      ]
    },
    {
      "more": [
        {
          "aff": "менен",
          "type": "КС"
        },
        {
          "aff": "дікі",
          "type": "Тиіс"
        },
        {
          "aff": "ң",
          "type": "ТЖ"
        }
      ],
      "affixes": "ңдікіменен",
      "phonet": [
        1
      ]
    },
    {
      "more": [
        {
          "aff": "дікі",
          "type": "Тиіс"
        },
        {
          "aff": "ңыз",
          "type": "ТЖ"
        },
        {
          "aff": "мен",
          "type": "КС"
        }
      ],
      "affixes": "ңыздікімен",
      "phonet": [
        1
      ]
    },
    {
      "more": [
        {
          "aff": "дікі",
          "type": "Тиіс"
        },
        {
          "aff": "на",
          "type": "БС"
        },
        {
          "aff": "ыңыз",
          "type": "ТЖ"
        }
      ],
      "affixes": "ыңыздікіне",
      "phonet": [
        2,
        3,
        4,
        5
      ]
    },
    {
      "more": [
        {
          "aff": "нан",
          "type": "ШС"
        },
        {
          "aff": "дікі",
          "type": "Тиіс"
        },
        {
          "aff": "ңыз",
          "type": "ТЖ"
        }
      ],
      "affixes": "ңыздікінен",
      "phonet": [
        1
      ]
    },
    {
      "more": [
        {
          "aff": "ңыз",
          "type": "ТЖ"
        },
        {
          "aff": "ның",
          "type": "ІС"
        },
        {
          "aff": "дікі",
          "type": "Тиіс"
        }
      ],
      "affixes": "ңыздікінің",
      "phonet": [
        1
      ]
    },
    {
      "more": [
        {
          "aff": "ы",
          "type": "ТЖ"
        },
        {
          "aff": "менен",
          "type": "КС"
        },
        {
          "aff": "нікі",
          "type": "Тиіс"
        }
      ],
      "affixes": "ынікіменен",
      "phonet": [
        2,
        3,
        4,
        5
      ]
    },
    {
      "more": [
        {
          "aff": "быз",
          "type": "ЖЖ"
        },
        {
          "aff": "лар",
          "type": "КЖ"
        },
        {
          "aff": "ыңыз",
          "type": "ТЖ"
        }
      ],
      "affixes": "ларыңызбыз",
      "phonet": [
        1,
        2
      ]
    },
    {
      "more": [
        {
          "aff": "ыңыз",
          "type": "ТЖ"
        },
        {
          "aff": "быз",
          "type": "ЖЖ"
        },
        {
          "aff": "дар",
          "type": "КЖ"
        }
      ],
      "affixes": "дарыңызбыз",
      "phonet": [
        3,
        5
      ]
    },
    {
      "more": [
        {
          "aff": "ыңыз",
          "type": "ТЖ"
        },
        {
          "aff": "быз",
          "type": "ЖЖ"
        },
        {
          "aff": "тар",
          "type": "КЖ"
        }
      ],
      "affixes": "тарыңызбыз",
      "phonet": [
        4
      ]
    },
    {
      "more": [
        {
          "aff": "сыздар",
          "type": "ЖЖ"
        },
        {
          "aff": "ы",
          "type": "ТЖ"
        },
        {
          "aff": "лар",
          "type": "КЖ"
        }
      ],
      "affixes": "ларысыздар",
      "phonet": [
        1,
        2
      ]
    },
    {
      "more": [
        {
          "aff": "сыздар",
          "type": "ЖЖ"
        },
        {
          "aff": "дар",
          "type": "КЖ"
        },
        {
          "aff": "ы",
          "type": "ТЖ"
        }
      ],
      "affixes": "дарысыздар",
      "phonet": [
        3,
        5
      ]
    },
    {
      "more": [
        {
          "aff": "ы",
          "type": "ТЖ"
        },
        {
          "aff": "тар",
          "type": "КЖ"
        },
        {
          "aff": "сыздар",
          "type": "ЖЖ"
        }
      ],
      "affixes": "тарысыздар",
      "phonet": [
        4
      ]
    },
    {
      "more": [
        {
          "aff": "лар",
          "type": "КЖ"
        },
        {
          "aff": "сыңдар",
          "type": "ЖЖ"
        },
        {
          "aff": "ы",
          "type": "ТЖ"
        }
      ],
      "affixes": "ларысыңдар",
      "phonet": [
        1,
        2
      ]
    },
    {
      "more": [
        {
          "aff": "сыңдар",
          "type": "ЖЖ"
        },
        {
          "aff": "дар",
          "type": "КЖ"
        },
        {
          "aff": "ы",
          "type": "ТЖ"
        }
      ],
      "affixes": "дарысыңдар",
      "phonet": [
        3,
        5
      ]
    },
    {
      "more": [
        {
          "aff": "ы",
          "type": "ТЖ"
        },
        {
          "aff": "сыңдар",
          "type": "ЖЖ"
        },
        {
          "aff": "тар",
          "type": "КЖ"
        }
      ],
      "affixes": "тарысыңдар",
      "phonet": [
        4
      ]
    },
    {
      "more": [
        {
          "aff": "сыздар",
          "type": "ЖЖ"
        },
        {
          "aff": "ымыз",
          "type": "ТЖ"
        }
      ],
      "affixes": "ымызсыздар",
      "phonet": [
        2,
        3,
        4,
        5
      ]
    },
    {
      "more": [
        {
          "aff": "сыңдар",
          "type": "ЖЖ"
        },
        {
          "aff": "ымыз",
          "type": "ТЖ"
        }
      ],
      "affixes": "ымызсыңдар",
      "phonet": [
        2,
        3,
        4,
        5
      ]
    }
  ],
  "11": [
    {
      "more": [
        {
          "aff": "дікі",
          "type": "Тиіс"
        },
        {
          "aff": "менен",
          "type": "КС"
        },
        {
          "aff": "ың",
          "type": "ТЖ"
        }
      ],
      "affixes": "ыңдікіменен",
      "phonet": [
        2,
        3,
        4,
        5
      ]
    },
    {
      "more": [
        {
          "aff": "мен",
          "type": "КС"
        },
        {
          "aff": "дікі",
          "type": "Тиіс"
        },
        {
          "aff": "ыңыз",
          "type": "ТЖ"
        }
      ],
      "affixes": "ыңыздікімен",
      "phonet": [
        2,
        3,
        4,
        5
      ]
    },
    {
      "more": [
        {
          "aff": "нан",
          "type": "ШС"
        },
        {
          "aff": "дікі",
          "type": "Тиіс"
        },
        {
          "aff": "ыңыз",
          "type": "ТЖ"
        }
      ],
      "affixes": "ыңыздікінен",
      "phonet": [
        2,
        3,
        4,
        5
      ]
    },
    {
      "more": [
        {
          "aff": "дікі",
          "type": "Тиіс"
        },
        {
          "aff": "ның",
          "type": "ІС"
        },
        {
          "aff": "ыңыз",
          "type": "ТЖ"
        }
      ],
      "affixes": "ыңыздікінің",
      "phonet": [
        2,
        3,
        4,
        5
      ]
    },
    {
      "more": [
        {
          "aff": "сы",
          "type": "ТЖ"
        },
        {
          "aff": "нікі",
          "type": "Тиіс"
        },
        {
          "aff": "менен",
          "type": "КС"
        }
      ],
      "affixes": "сынікіменен",
      "phonet": [
        1
      ]
    },
    {
      "more": [
        {
          "aff": "ым",
          "type": "ТЖ"
        },
        {
          "aff": "лар",
          "type": "КЖ"
        },
        {
          "aff": "сыздар",
          "type": "ЖЖ"
        }
      ],
      "affixes": "ларымсыздар",
      "phonet": [
        1,
        2
      ]
    },
    {
      "more": [
        {
          "aff": "сыздар",
          "type": "ЖЖ"
        },
        {
          "aff": "дар",
          "type": "КЖ"
        },
        {
          "aff": "ым",
          "type": "ТЖ"
        }
      ],
      "affixes": "дарымсыздар",
      "phonet": [
        3,
        5
      ]
    },
    {
      "more": [
        {
          "aff": "тар",
          "type": "КЖ"
        },
        {
          "aff": "сыздар",
          "type": "ЖЖ"
        },
        {
          "aff": "ым",
          "type": "ТЖ"
        }
      ],
      "affixes": "тарымсыздар",
      "phonet": [
        4
      ]
    },
    {
      "more": [
        {
          "aff": "лар",
          "type": "КЖ"
        },
        {
          "aff": "сыңдар",
          "type": "ЖЖ"
        },
        {
          "aff": "ым",
          "type": "ТЖ"
        }
      ],
      "affixes": "ларымсыңдар",
      "phonet": [
        1,
        2
      ]
    },
    {
      "more": [
        {
          "aff": "дар",
          "type": "КЖ"
        },
        {
          "aff": "ым",
          "type": "ТЖ"
        },
        {
          "aff": "сыңдар",
          "type": "ЖЖ"
        }
      ],
      "affixes": "дарымсыңдар",
      "phonet": [
        3,
        5
      ]
    },
    {
      "more": [
        {
          "aff": "ым",
          "type": "ТЖ"
        },
        {
          "aff": "сыңдар",
          "type": "ЖЖ"
        },
        {
          "aff": "тар",
          "type": "КЖ"
        }
      ],
      "affixes": "тарымсыңдар",
      "phonet": [
        4
      ]
    }
  ],
  "12": [
    {
      "more": [
        {
          "aff": "ымыз",
          "type": "ТЖ"
        },
        {
          "aff": "лар",
          "type": "КЖ"
        },
        {
          "aff": "бенен",
          "type": "КС"
        }
      ],
      "affixes": "ларымызбенен",
      "phonet": [
        1,
        2
      ]
    },
    {
      "more": [
        {
          "aff": "тар",
          "type": "КЖ"
        },
        {
          "aff": "бенен",
          "type": "КС"
        },
        {
          "aff": "ымыз",
          "type": "ТЖ"
        }
      ],
      "affixes": "тарымызбенен",
      "phonet": [
        4
      ]
    },
    {
      "more": [
        {
          "aff": "ымыз",
          "type": "ТЖ"
        },
        {
          "aff": "бенен",
          "type": "КС"
        },
        {
          "aff": "дар",
          "type": "КЖ"
        }
      ],
      "affixes": "дарымызбенен",
      "phonet": [
        3,
        5
      ]
    },
    {
      "more": [
        {
          "aff": "лар",
          "type": "КЖ"
        },
        {
          "aff": "ыңыз",
          "type": "ТЖ"
        },
        {
          "aff": "бенен",
          "type": "КС"
        }
      ],
      "affixes": "ларыңызбенен",
      "phonet": [
        1,
        2
      ]
    },
    {
      "more": [
        {
          "aff": "бенен",
          "type": "КС"
        },
        {
          "aff": "ыңыз",
          "type": "ТЖ"
        },
        {
          "aff": "тар",
          "type": "КЖ"
        }
      ],
      "affixes": "тарыңызбенен",
      "phonet": [
        4
      ]
    },
    {
      "more": [
        {
          "aff": "ыңыз",
          "type": "ТЖ"
        },
        {
          "aff": "бенен",
          "type": "КС"
        },
        {
          "aff": "дар",
          "type": "КЖ"
        }
      ],
      "affixes": "дарыңызбенен",
      "phonet": [
        3,
        5
      ]
    },
    {
      "more": [
        {
          "aff": "ңыз",
          "type": "ТЖ"
        },
        {
          "aff": "менен",
          "type": "КС"
        },
        {
          "aff": "дікі",
          "type": "Тиіс"
        }
      ],
      "affixes": "ңыздікіменен",
      "phonet": [
        1
      ]
    }
  ],
  "13": [
    {
      "more": [
        {
          "aff": "ыңыз",
          "type": "ТЖ"
        },
        {
          "aff": "дікі",
          "type": "Тиіс"
        },
        {
          "aff": "менен",
          "type": "КС"
        }
      ],
      "affixes": "ыңыздікіменен",
      "phonet": [
        2,
        3,
        4,
        5
      ]
    }
  ]
}